module esteban-challenge

go 1.14

require (
	github.com/PuerkitoBio/goquery v1.5.1 // indirect
	github.com/antchfx/htmlquery v1.2.3 // indirect
	github.com/antchfx/xmlquery v1.2.4 // indirect
	github.com/gin-contrib/cors v1.3.1
	github.com/gin-gonic/gin v1.6.3 // direct
	github.com/go-playground/validator/v10 v10.3.0 // indirect
	github.com/go-redis/redis v6.15.8+incompatible
	github.com/gobwas/glob v0.2.3 // indirect
	github.com/gocolly/colly v1.2.0
	github.com/json-iterator/go v1.1.10 // indirect
	github.com/kennygrant/sanitize v1.2.4 // indirect
	github.com/lib/pq v1.7.0
	github.com/modern-go/concurrent v0.0.0-20180306012644-bacd9c7ef1dd // indirect
	github.com/modern-go/reflect2 v1.0.1 // indirect
	github.com/saintfish/chardet v0.0.0-20120816061221-3af4cd4741ca // indirect
	github.com/temoto/robotstxt v1.1.1 // indirect
	golang.org/x/sys v0.0.0-20200602225109-6fdc65e7d980 // indirect
	google.golang.org/protobuf v1.24.0 // indirect
)
